{
  "fisico" : 
  [ 
    {
      "custo" : 3,
      "nome" : "Fôlego"
    }, 
    {
      "custo" : 2,
      "nome" : "Atletismo"
    },
    {
      "custo":3,
      "nome":"Escalada"
    },
    {
      "nome":"Porrete*",
      "custo":2
    },
    {
      "nome":"Grande Porrete*",
      "custo":3
    },
    {
      "nome":"Briga",
      "custo":2
    }
  ],
  "coordenacao":
  [
    {
      "nome":"Camuflagem",
      "custo":2
    },
    {
      "nome":"Mãos Leves",
      "custo":2
    },
    {
      "nome":"Mangual",
      "custo":3
    },
    {
      "nome":"Grande Mangual",
      "custo":4
    },
    {
      "nome":"Arremesso*",
      "custo":2
    },
    {
      "nome":"Espada*",
      "custo":2
    },
    {
      "nome":"Espadão*",
      "custo":3
    },
    {
      "nome":"Adaga",
      "custo":2
    },
    {
      "nome":"Lança*",
      "custo":2
    },
    {
      "nome":"Foice*",
      "custo":3
    },
    {
      "nome":"Bastão curto",
      "custo":1
    },
    {
      "nome":"Bastão longo",
      "custo":2
    },
    {
      "nome":"Machado",
      "custo":1
    },
    {
      "nome":"Machadão*",
      "custo":3
    },
    {
      "nome":"Katar/Garra*",
      "custo":4
    },
    {
      "nome":"Escudo*",
      "custo":2
    },
    {
      "nome":"Arco*",
      "custo":3
    },
    {
      "nome":"Balestra",
      "custo":2
    },
    {
      "nome":"Artes Marciais*",
      "custo":4
    },
    {
      "nome":"Tiro*",
      "custo":3
    },
    {
      "nome":"Chicote*",
      "custo":3
    },
    {
      "nome":"Instrumento musical*",
      "custo":2
    },
    {
      "nome":"Acrobacia",
      "custo":2
    }
  ],
  "inteligencia":
  [
    {
      "nome":"Sobrevivência",
      "custo":2
    },
    {
      "nome":"Mecânica*",
      "custo":3
    },
    {
      "nome":"Forja*",
      "custo":2
    },
    {
      "nome":"Mineração*",
      "custo":1
    },
    {
      "nome":"Cozinha*",
      "custo":2
    },
    {
      "nome":"Artesanato*",
      "custo":2
    },
    {
      "nome":"Alquimia*",
      "custo":3
    },
    {
      "nome":"Medicina*",
      "custo":3
    },
    {
      "nome":"Criaturas*",
      "custo":3
    },
    {
      "nome":"Siglística",
      "custo":3
    },
    {
      "nome":"Ocultismo",
      "custo":3
    },
    {
      "nome":"Navegação",
      "custo":2
    },
    {
      "nome":"Cultura*",
      "custo":3
    },
    {
      "nome":"Idiomas*",
      "custo":2
    }
  ],
  "vontade":
  [
    {
      "nome":"Primordia",
      "custo":4
    },
    {
      "nome":"Elemental Fogo",
      "custo":3
    },
    {
      "nome":"Elemental Terra",
      "custo":3
    },
    {
      "nome":"Elemental Elétrico",
      "custo":3
    },
    {
      "nome":"Elemental Luz",
      "custo":3
    },
    {
      "nome":"Elemental Água",
      "custo":3
    },
    {
      "nome":"Elemental Ar",
      "custo":3
    },
    {
      "nome":"Elemental Frio",
      "custo":3
    },
    {
      "nome":"Elemental Sombra",
      "custo":3
    },
    {
      "nome":"Psicomancia",
      "custo":4
    },
    {
      "nome":"Conjuração",
      "custo":4
    },
    {
      "nome":"Divina",
      "custo":3
    },
    {
      "nome":"Sanguini",
      "custo":3
    },
    {
      "nome":"Metamorfose",
      "custo":4
    },
    {
      "nome":"Necromancia",
      "custo":4
    }
  ],
  "astucia":
  [
    {
      "nome":"Investigação",
      "custo":2
    },
    {
      "nome":"Percepção",
      "custo":2
    },
    {
      "nome":"Rastreio",
      "custo":3
    },
    {
      "nome":"Abrir trancas",
      "custo":3
    }
  ],
  "presenca":
  [
    {
      "nome":"Comando",
      "custo":3
    },
    {
      "nome":"Intimidação",
      "custo":2
    },
    {
      "nome":"Canto",
      "custo":3
    },
    {
      "nome":"Lábia",
      "custo":2
    },
    {
      "nome":"Atuação",
      "custo":3
    },
    {
      "nome":"Sedução",
      "custo":2
    }
  ]
}
