{
  "PRINCIPAL" : {
    "competencias" : {
      "astucia" : [ {
        "custo" : 2,
        "nome" : "Investigação"
      }, {
        "custo" : 2,
        "nome" : "Percepção"
      }, {
        "custo" : 3,
        "nome" : "Rastreio"
      }, {
        "custo" : 3,
        "nome" : "Abrir trancas"
      } ],
      "coordenacao" : [ {
        "custo" : 2,
        "nome" : "Camuflagem"
      }, {
        "custo" : 2,
        "nome" : "Mãos Leves"
      }, {
        "custo" : 3,
        "nome" : "Mangual"
      }, {
        "custo" : 4,
        "nome" : "Grande Mangual"
      }, {
        "custo" : 2,
        "nome" : "Arremesso*"
      }, {
        "custo" : 2,
        "nome" : "Espada*"
      }, {
        "custo" : 3,
        "nome" : "Espadão*"
      }, {
        "custo" : 2,
        "nome" : "Adaga"
      }, {
        "custo" : 2,
        "nome" : "Lança*"
      }, {
        "custo" : 3,
        "nome" : "Foice*"
      }, {
        "custo" : 1,
        "nome" : "Bastão curto"
      }, {
        "custo" : 2,
        "nome" : "Bastão longo"
      }, {
        "custo" : 1,
        "nome" : "Machado"
      }, {
        "custo" : 3,
        "nome" : "Machadão*"
      }, {
        "custo" : 4,
        "nome" : "Katar/Garra*"
      }, {
        "custo" : 2,
        "nome" : "Escudo*"
      }, {
        "custo" : 3,
        "nome" : "Arco*"
      }, {
        "custo" : 2,
        "nome" : "Balestra"
      }, {
        "custo" : 4,
        "nome" : "Artes Marciais*"
      }, {
        "custo" : 3,
        "nome" : "Tiro*"
      }, {
        "custo" : 3,
        "nome" : "Chicote*"
      }, {
        "custo" : 2,
        "nome" : "Instrumento musical*"
      }, {
        "custo" : 2,
        "nome" : "Acrobacia"
      } ],
      "fisico" : [ {
        "custo" : 3,
        "nome" : "Fôlego"
      }, {
        "custo" : 2,
        "nome" : "Atletismo"
      }, {
        "custo" : 3,
        "nome" : "Escalada"
      }, {
        "custo" : 2,
        "nome" : "Porrete*"
      }, {
        "custo" : 3,
        "nome" : "Grande Porrete*"
      }, {
        "custo" : 2,
        "nome" : "Briga"
      } ],
      "inteligencia" : [ {
        "custo" : 2,
        "nome" : "Sobrevivência"
      }, {
        "custo" : 3,
        "nome" : "Mecânica*"
      }, {
        "custo" : 2,
        "nome" : "Forja*"
      }, {
        "custo" : 1,
        "nome" : "Mineração*"
      }, {
        "custo" : 2,
        "nome" : "Cozinha*"
      }, {
        "custo" : 2,
        "nome" : "Artesanato*"
      }, {
        "custo" : 3,
        "nome" : "Alquimia*"
      }, {
        "custo" : 3,
        "nome" : "Medicina*"
      }, {
        "custo" : 3,
        "nome" : "Criaturas*"
      }, {
        "custo" : 3,
        "nome" : "Siglística"
      }, {
        "custo" : 3,
        "nome" : "Ocultismo"
      }, {
        "custo" : 2,
        "nome" : "Navegação"
      }, {
        "custo" : 3,
        "nome" : "Cultura*"
      }, {
        "custo" : 2,
        "nome" : "Idiomas*"
      } ],
      "presenca" : [ {
        "custo" : 3,
        "nome" : "Comando"
      }, {
        "custo" : 2,
        "nome" : "Intimidação"
      }, {
        "custo" : 3,
        "nome" : "Canto"
      }, {
        "custo" : 2,
        "nome" : "Lábia"
      }, {
        "custo" : 3,
        "nome" : "Atuação"
      }, {
        "custo" : 2,
        "nome" : "Sedução"
      } ],
      "vontade" : [ {
        "custo" : 4,
        "nome" : "Primordia"
      }, {
        "custo" : 3,
        "nome" : "Elemental Fogo"
      }, {
        "custo" : 3,
        "nome" : "Elemental Terra"
      }, {
        "custo" : 3,
        "nome" : "Elemental Elétrico"
      }, {
        "custo" : 3,
        "nome" : "Elemental Luz"
      }, {
        "custo" : 3,
        "nome" : "Elemental Água"
      }, {
        "custo" : 3,
        "nome" : "Elemental Ar"
      }, {
        "custo" : 3,
        "nome" : "Elemental Frio"
      }, {
        "custo" : 3,
        "nome" : "Elemental Sombra"
      }, {
        "custo" : 4,
        "nome" : "Psicomancia"
      }, {
        "custo" : 4,
        "nome" : "Conjuração"
      }, {
        "custo" : 3,
        "nome" : "Divina"
      }, {
        "custo" : 3,
        "nome" : "Sanguini"
      }, {
        "custo" : 4,
        "nome" : "Metamorfose"
      }, {
        "custo" : 4,
        "nome" : "Necromancia"
      }, {
        "custo" : 3,
        "nome" : "Elemental Metal"
      } ]
    },
    "racas" : [ {
      "nome" : "Humano"
    }, {
      "nome" : "Elfo",
      "traco" : {
        "descricao" : "",
        "nome" : ""
      }
    }, {
      "nome" : "Anão",
      "traco" : {
        "descricao" : "",
        "nome" : ""
      }
    }, {
      "nome" : "Faelir",
      "traco" : {
        "descricao" : "",
        "nome" : ""
      }
    }, {
      "nome" : "Siruna",
      "traco" : {
        "descricao" : "",
        "nome" : ""
      }
    }, {
      "nome" : "Ravenfir",
      "traco" : {
        "descricao" : "",
        "nome" : ""
      }
    }, {
      "nome" : "Sintético",
      "traco" : {
        "descricao" : "",
        "nome" : ""
      }
    } ],
    "tracos" : [ {
      "custo" : -12,
      "descricao" : "",
      "nome" : "Naekarthum"
    }, {
      "custo" : -12,
      "descricao" : "",
      "nome" : "Afinidade Arcana"
    }, {
      "custo" : -8,
      "descricao" : "",
      "nome" : "Magia Gestual"
    }, {
      "custo" : -5,
      "descricao" : "",
      "nome" : "Magia Sonora"
    }, {
      "custo" : -2,
      "descricao" : "",
      "nome" : "Magia por Artefato"
    }, {
      "custo" : -3,
      "descricao" : "",
      "nome" : "Ambidestria"
    }, {
      "custo" : 4,
      "descricao" : "",
      "nome" : "Impulsivo"
    }, {
      "custo" : 5,
      "descricao" : "",
      "nome" : "Honestidade Compulsiva"
    }, {
      "custo" : 4,
      "descricao" : "",
      "nome" : "Chamado do Dever"
    }, {
      "custo" : -12,
      "descricao" : "",
      "nome" : "Surdez Arcana"
    } ]
  },
  "STAR WARS" : {
    "competencias" : {
      "astucia" : [ {
        "custo" : 2,
        "nome" : "Investigação"
      }, {
        "custo" : 2,
        "nome" : "Percepção"
      }, {
        "custo" : 3,
        "nome" : "Rastreio"
      }, {
        "custo" : 3,
        "nome" : "Abrir trancas"
      } ],
      "coordenacao" : [ {
        "custo" : 2,
        "nome" : "Camuflagem"
      }, {
        "custo" : 2,
        "nome" : "Mãos Leves"
      }, {
        "custo" : 4,
        "nome" : "Lightsaber*"
      }, {
        "custo" : 2,
        "nome" : "Arremesso*"
      }, {
        "custo" : 2,
        "nome" : "Vibrolâmina*"
      }, {
        "custo" : 2,
        "nome" : "Eletrolâmina*"
      }, {
        "custo" : 3,
        "nome" : "Projéteis*"
      }, {
        "custo" : 4,
        "nome" : "Artes Marciais*"
      }, {
        "custo" : 2,
        "nome" : "Blaster*"
      }, {
        "custo" : 3,
        "nome" : "Chicote*"
      }, {
        "custo" : 2,
        "nome" : "Acrobacia"
      }, {
        "custo" : 3,
        "nome" : "Pilotagem*"
      }, {
        "custo" : 2,
        "nome" : "Condução*"
      } ],
      "fisico" : [ {
        "custo" : 3,
        "nome" : "Fôlego"
      }, {
        "custo" : 2,
        "nome" : "Atletismo"
      }, {
        "custo" : 3,
        "nome" : "Escalada"
      }, {
        "custo" : 2,
        "nome" : "Porrete*"
      }, {
        "custo" : 3,
        "nome" : "Grande Porrete*"
      }, {
        "custo" : 2,
        "nome" : "Briga"
      } ],
      "inteligencia" : [ {
        "custo" : 2,
        "nome" : "Sobrevivência"
      }, {
        "custo" : 3,
        "nome" : "Mecânica*"
      }, {
        "custo" : 2,
        "nome" : "Forja*"
      }, {
        "custo" : 3,
        "nome" : "Engenharia*"
      }, {
        "custo" : 2,
        "nome" : "Cozinha*"
      }, {
        "custo" : 2,
        "nome" : "Artesanato*"
      }, {
        "custo" : 3,
        "nome" : "Química*"
      }, {
        "custo" : 3,
        "nome" : "Medicina*"
      }, {
        "custo" : 3,
        "nome" : "Criaturas*"
      }, {
        "custo" : 3,
        "nome" : "Astrogação"
      }, {
        "custo" : 2,
        "nome" : "Computação*"
      }, {
        "custo" : 3,
        "nome" : "Cultura*"
      }, {
        "custo" : 2,
        "nome" : "Idiomas*"
      } ],
      "presenca" : [ {
        "custo" : 3,
        "nome" : "Comando"
      }, {
        "custo" : 2,
        "nome" : "Intimidação"
      }, {
        "custo" : 3,
        "nome" : "Canto"
      }, {
        "custo" : 2,
        "nome" : "Lábia"
      }, {
        "custo" : 3,
        "nome" : "Atuação"
      }, {
        "custo" : 2,
        "nome" : "Sedução"
      } ],
      "vontade" : [ {
        "custo" : 4,
        "nome" : "Alteração*"
      }, {
        "custo" : 4,
        "nome" : "Controle*"
      }, {
        "custo" : 4,
        "nome" : "Sentido*"
      }, {
        "custo" : 3,
        "nome" : "Antecipação"
      } ]
    },
    "racas" : [ {
      "nome" : "Humano"
    }, {
      "nome" : "Zabrak",
      "traco" : {
        "descricao" : "",
        "nome" : ""
      }
    }, {
      "nome" : "Miraluka",
      "traco" : {
        "descricao" : "",
        "nome" : ""
      }
    }, {
      "nome" : "Chiss",
      "traco" : {
        "descricao" : "",
        "nome" : ""
      }
    }, {
      "nome" : "Mirialan",
      "traco" : {
        "descricao" : "",
        "nome" : ""
      }
    }, {
      "nome" : "Mon Calamari",
      "traco" : {
        "descricao" : "",
        "nome" : ""
      }
    }, {
      "nome" : "Droid",
      "traco" : {
        "descricao" : "",
        "nome" : ""
      }
    } ],
    "tracos" : [ {
      "custo" : -12,
      "descricao" : "",
      "nome" : "Sensitivo"
    }, {
      "custo" : -12,
      "descricao" : "",
      "nome" : "Afinidade Arcana"
    }, {
      "custo" : -3,
      "descricao" : "",
      "nome" : "Ambidestria"
    }, {
      "custo" : 4,
      "descricao" : "",
      "nome" : "Impulsivo"
    }, {
      "custo" : 5,
      "descricao" : "",
      "nome" : "Honestidade Compulsiva"
    }, {
      "custo" : 4,
      "descricao" : "",
      "nome" : "Chamado do Dever"
    } ]
  },
  "SCI-FI" : {
    "competencias" : {
      "astucia" : [ {
        "custo" : 2,
        "nome" : "Investigação"
      }, {
        "custo" : 2,
        "nome" : "Percepção"
      }, {
        "custo" : 3,
        "nome" : "Rastreio"
      }, {
        "custo" : 3,
        "nome" : "Abrir trancas"
      } ],
      "coordenacao" : [ {
        "custo" : 2,
        "nome" : "Camuflagem"
      }, {
        "custo" : 2,
        "nome" : "Mãos Leves"
      }, {
        "custo" : 2,
        "nome" : "Arremesso*"
      }, {
        "custo" : 2,
        "nome" : "Vibrolâmina*"
      }, {
        "custo" : 2,
        "nome" : "Eletrolâmina*"
      }, {
        "custo" : 3,
        "nome" : "Projéteis*"
      }, {
        "custo" : 4,
        "nome" : "Artes Marciais*"
      }, {
        "custo" : 2,
        "nome" : "Blaster*"
      }, {
        "custo" : 3,
        "nome" : "Chicote*"
      }, {
        "custo" : 2,
        "nome" : "Acrobacia"
      }, {
        "custo" : 3,
        "nome" : "Pilotagem*"
      }, {
        "custo" : 2,
        "nome" : "Condução*"
      } ],
      "fisico" : [ {
        "custo" : 3,
        "nome" : "Fôlego"
      }, {
        "custo" : 2,
        "nome" : "Atletismo"
      }, {
        "custo" : 3,
        "nome" : "Escalada"
      }, {
        "custo" : 2,
        "nome" : "Porrete*"
      }, {
        "custo" : 3,
        "nome" : "Grande Porrete*"
      }, {
        "custo" : 2,
        "nome" : "Briga"
      } ],
      "inteligencia" : [ {
        "custo" : 2,
        "nome" : "Sobrevivência"
      }, {
        "custo" : 3,
        "nome" : "Mecânica*"
      }, {
        "custo" : 2,
        "nome" : "Forja*"
      }, {
        "custo" : 3,
        "nome" : "Engenharia*"
      }, {
        "custo" : 2,
        "nome" : "Cozinha*"
      }, {
        "custo" : 2,
        "nome" : "Artesanato*"
      }, {
        "custo" : 3,
        "nome" : "Química*"
      }, {
        "custo" : 3,
        "nome" : "Medicina*"
      }, {
        "custo" : 3,
        "nome" : "Criaturas*"
      }, {
        "custo" : 3,
        "nome" : "Astrogação"
      }, {
        "custo" : 2,
        "nome" : "Computação*"
      }, {
        "custo" : 3,
        "nome" : "Cultura*"
      }, {
        "custo" : 2,
        "nome" : "Idiomas*"
      } ],
      "presenca" : [ {
        "custo" : 3,
        "nome" : "Comando"
      }, {
        "custo" : 2,
        "nome" : "Intimidação"
      }, {
        "custo" : 3,
        "nome" : "Canto"
      }, {
        "custo" : 2,
        "nome" : "Lábia"
      }, {
        "custo" : 3,
        "nome" : "Atuação"
      }, {
        "custo" : 2,
        "nome" : "Sedução"
      } ],
      "vontade" : [ {
        "custo" : 4,
        "nome" : "Alteração*"
      }, {
        "custo" : 4,
        "nome" : "Controle*"
      }, {
        "custo" : 4,
        "nome" : "Sentido*"
      } ]
    },
    "racas" : [ {
      "nome" : "Humano"
    }, {
      "nome" : "Droid",
      "traco" : {
        "descricao" : "",
        "nome" : "Cérebro Positrônico"
      }
    } ],
    "tracos" : [ {
      "custo" : -12,
      "descricao" : "",
      "nome" : "Psiônico"
    }, {
      "custo" : -3,
      "descricao" : "",
      "nome" : "Ambidestria"
    }, {
      "custo" : 4,
      "descricao" : "",
      "nome" : "Impulsivo"
    }, {
      "custo" : 5,
      "descricao" : "",
      "nome" : "Honestidade Compulsiva"
    }, {
      "custo" : 4,
      "descricao" : "",
      "nome" : "Chamado do Dever"
    }, {
      "custo" : -3,
      "descricao" : "",
      "nome" : "Implante Cibernético"
    } ]
  }
}
